-- BackupJobHistory
--
-- One Row Per Backup Job Run
--
-- JobArguments should be the command line
-- Contains timings of the jobs too
create table BackupJobHistory (
	JobName						varchar(30),
	JobArguments				varchar(255),
	JobExitNotes  				varchar(255),
	JobBatchId					varchar(60),
	JobServerName				varchar(30),

	JobStartTime				datetime,
	JobEndTime					datetime,
	JobDuration_secs			int,
	JobSuccessCode				varchar(30),

	TRAN_DUMPS_secs			int null,
	PURGE_secs					int null,
	DBCC_secs					int null,
	CLEAR_TRAN_LOGS_secs		int null,
	FULL_DB_DUMP_secs			int null,
	REBUILD_REORG_secs		int null,
	UPDATE_STATISTICS_secs	int null,
	AUDIT_secs					int null,
	RECONNECT_secs				int null,
	COMPRESS_secs				int null,
	REBUILD_INDEXES_secs		int null,
	BCP_secs						int null,
	CROSS_CHECK_secs			int null
)
go
create unique clustered index BJIND0 on BackupJobHistory ( JobName,JobArguments,JobStartTime, JobEndTime,JobServerName)
go
create  nonclustered index BJIND1 on BackupJobHistory ( JobName, JobBatchId, JobStartTime)
go
create  nonclustered index BJIND2 on BackupJobHistory ( JobStartTime, JobName, JobBatchId)
go
