create table INV_credential_notes
(
  credential_name	varchar(128) 		not null,
  credential_type	varchar(30) 		not null,
  credential_id		varchar(128)		null,
/*  --system_name  		varchar(30) 		null, */
/*  --system_type  		varchar(30) 		null, */

  is_unuseable			char(1)	default 'N',
  is_serviceaccount			char(1)	default 'N',
  is_operator			char(1)	default 'N',
  is_ldap_group		char(1)	default 'N',
  is_ldap_user			char(1)	default 'N',
  is_shared			char(1)	default 'N',
  is_error 			char(1) default 'N',

  ldap_user				varchar(60) null,
  ldap_group			varchar(60) null,

  user_notes			varchar(60) null
)
go

grant select on INV_credential_notes to public
grant all    on INV_credential_notes to gemalarms
go

create unique clustered index CXINV_credential_notes on INV_credential_notes
( credential_name, credential_type, credential_id)
--, system_name, system_type )
go
