-- SentNotification
--
-- Alerts you have sent out
--
create table SentNotification (
	monitor_program	varchar(30) 	not null,
	system				varchar(30) 	not null,
	subsystem			varchar(50) 	null,
	monitor_time			datetime 	not null,
	severity				varchar(20)    	null,

	user_name		varchar(30) 	not null,
	notify_time		datetime	not null,
	notify_type		varchar(10)	not null,
	subject			varchar(70)	not null,
	message			varchar(255)	not null
)
go

create unique clustered index SNIndxPK on SentNotification (
	monitor_program	, system				, subsystem			,
	monitor_time		, severity, user_name, notify_time, notify_type				)
go

